{
  "id": 0,
  "name": "RecipeName",
  "categories": [
    "Category1",
    "Category2"
  ],
  "bakingInfo": [
    "Info1",
    "Info2",
    "Info3"
  ],
  "ingredients": [
    {
      "name": "Ingredient1",
      "amount": "[Number]",
      "unit": "[MeasurementUnit]"
    }
  ],
  "steps": [
    "Step1",
    "Step2",
    "Step3",
    "Step4",
    "Step5"
  ],
  "tips": [
    "Tip1",
    "Tip2"
  ]
}